%YAML 1.1
%TAG !u! tag:unity3d.com,2011:
--- !u!114 &11400000
MonoBehaviour:
  m_ObjectHideFlags: 0
  m_PrefabParentObject: {fileID: 0}
  m_PrefabInternal: {fileID: 0}
  m_GameObject: {fileID: 0}
  m_Enabled: 1
  m_EditorHideFlags: 0
  m_Script: {fileID: 11500000, guid: 45a79fd97bd281545b911128e4d26dc8, type: 3}
  m_Name: Pause_menu
  m_EditorClassIdentifier: 
  menuName: Pause_menu
  menuPanels:
  - panelName: Pause
    menuItems:
    - Resume
    - Main menu
